HW1
…
── Attaching packages ─────────────────────────────────────── tidyverse 1.3.2 ──
✔ ggplot2 3.3.6     ✔ purrr   0.3.4
✔ tibble  3.1.7     ✔ dplyr   1.0.9
✔ tidyr   1.2.0     ✔ stringr 1.4.0
✔ readr   2.1.2     ✔ forcats 0.5.1
── Conflicts ────────────────────────────────────────── tidyverse_conflicts() ──
✖ dplyr::filter() masks stats::filter()
✖ dplyr::lag()    masks stats::lag()

Section 5.2.4 Exercise 1 Find all flights that had an arrival delay of two or more hour Since the arr_delay variable is measured in minutes, find flights with an arrival delay of 120 or more minutes.

filter(flights, arr_delay >= 120)

# A tibble: 10,200 × 19
    year month   day dep_time sched_dep_time dep_delay arr_time sched_arr_time
   <int> <int> <int>    <int>          <int>     <dbl>    <int>          <int>
 1  2013     1     1      811            630       101     1047            830
 2  2013     1     1      848           1835       853     1001           1950
 3  2013     1     1      957            733       144     1056            853
 4  2013     1     1     1114            900       134     1447           1222
 5  2013     1     1     1505           1310       115     1638           1431
 6  2013     1     1     1525           1340       105     1831           1626
 7  2013     1     1     1549           1445        64     1912           1656
 8  2013     1     1     1558           1359       119     1718           1515
 9  2013     1     1     1732           1630        62     2028           1825
10  2013     1     1     1803           1620       103     2008           1750
# … with 10,190 more rows, and 11 more variables: arr_delay <dbl>,
#   carrier <chr>, flight <int>, tailnum <chr>, origin <chr>, dest <chr>,
#   air_time <dbl>, distance <dbl>, hour <dbl>, minute <dbl>, time_hour <dttm>

Exercise 2 Find all flights that flew to Houston (IAH or HOU) The flights that flew to Houston are those flights where the destination (dest) is either "IAH" or "HOU".

filter(flights, dest == "IAH" | dest == "HOU")

# A tibble: 9,313 × 19
    year month   day dep_time sched_dep_time dep_delay arr_time sched_arr_time
   <int> <int> <int>    <int>          <int>     <dbl>    <int>          <int>
 1  2013     1     1      517            515         2      830            819
 2  2013     1     1      533            529         4      850            830
 3  2013     1     1      623            627        -4      933            932
 4  2013     1     1      728            732        -4     1041           1038
 5  2013     1     1      739            739         0     1104           1038
 6  2013     1     1      908            908         0     1228           1219
 7  2013     1     1     1028           1026         2     1350           1339
 8  2013     1     1     1044           1045        -1     1352           1351
 9  2013     1     1     1114            900       134     1447           1222
10  2013     1     1     1205           1200         5     1503           1505
# … with 9,303 more rows, and 11 more variables: arr_delay <dbl>,
#   carrier <chr>, flight <int>, tailnum <chr>, origin <chr>, dest <chr>,
#   air_time <dbl>, distance <dbl>, hour <dbl>, minute <dbl>, time_hour <dttm>
…
Then, we look up the carrier codes for “United”, “American” and “Delta”. The carrier code for Delta is “DL”, for American is “AA”, and for United is “UA”. We check whether carrier is one of those.

filter(flights, carrier %in% c("AA", "DL", "UA"))

# A tibble: 139,504 × 19
    year month   day dep_time sched_dep_time dep_delay arr_time sched_arr_time
   <int> <int> <int>    <int>          <int>     <dbl>    <int>          <int>
 1  2013     1     1      517            515         2      830            819
 2  2013     1     1      533            529         4      850            830
 3  2013     1     1      542            540         2      923            850
 4  2013     1     1      554            600        -6      812            837
 5  2013     1     1      554            558        -4      740            728
 6  2013     1     1      558            600        -2      753            745
 7  2013     1     1      558            600        -2      924            917
 8  2013     1     1      558            600        -2      923            937
 9  2013     1     1      559            600        -1      941            910
10  2013     1     1      559            600        -1      854            902
# … with 139,494 more rows, and 11 more variables: arr_delay <dbl>,
#   carrier <chr>, flight <int>, tailnum <chr>, origin <chr>, dest <chr>,
#   air_time <dbl>, distance <dbl>, hour <dbl>, minute <dbl>, time_hour <dttm>

Section 5.3.1 Exercise 2 Sort flights to find the most delayed flights. Find the flights that left earliest.

Find the most delayed flights by sorting the table by departure delay, dep_delay, in descending order.

#The most delayed fights
arrange(flights, desc(dep_delay))

# A tibble: 336,776 × 19
    year month   day dep_time sched_dep_time dep_delay arr_time sched_arr_time
   <int> <int> <int>    <int>          <int>     <dbl>    <int>          <int>
 1  2013     1     9      641            900      1301     1242           1530
 2  2013     6    15     1432           1935      1137     1607           2120
 3  2013     1    10     1121           1635      1126     1239           1810
 4  2013     9    20     1139           1845      1014     1457           2210
 5  2013     7    22      845           1600      1005     1044           1815
 6  2013     4    10     1100           1900       960     1342           2211
 7  2013     3    17     2321            810       911      135           1020
 8  2013     6    27      959           1900       899     1236           2226
 9  2013     7    22     2257            759       898      121           1026
10  2013    12     5      756           1700       896     1058           2020
# … with 336,766 more rows, and 11 more variables: arr_delay <dbl>,
#   carrier <chr>, flight <int>, tailnum <chr>, origin <chr>, dest <chr>,
#   air_time <dbl>, distance <dbl>, hour <dbl>, minute <dbl>, time_hour <dttm>

#Flights that left earliest
arrange(flights, dep_delay)

# A tibble: 336,776 × 19
    year month   day dep_time sched_dep_time dep_delay arr_time sched_arr_time
   <int> <int> <int>    <int>          <int>     <dbl>    <int>          <int>
 1  2013    12     7     2040           2123       -43       40           2352
 2  2013     2     3     2022           2055       -33     2240           2338
 3  2013    11    10     1408           1440       -32     1549           1559
 4  2013     1    11     1900           1930       -30     2233           2243
 5  2013     1    29     1703           1730       -27     1947           1957
 6  2013     8     9      729            755       -26     1002            955
 7  2013    10    23     1907           1932       -25     2143           2143
 8  2013     3    30     2030           2055       -25     2213           2250
 9  2013     3     2     1431           1455       -24     1601           1631
10  2013     5     5      934            958       -24     1225           1309
# … with 336,766 more rows, and 11 more variables: arr_delay <dbl>,
#   carrier <chr>, flight <int>, tailnum <chr>, origin <chr>, dest <chr>,
#   air_time <dbl>, distance <dbl>, hour <dbl>, minute <dbl>, time_hour <dttm>
…
Exercise 4 Which flights travelled the farthest? Which travelled the shortest?

To find the longest flight, sort the flights by the distance column in descending order.

arrange(flights, desc(distance))

# A tibble: 336,776 × 19
    year month   day dep_time sched_dep_time dep_delay arr_time sched_arr_time
   <int> <int> <int>    <int>          <int>     <dbl>    <int>          <int>
 1  2013     1     1      857            900        -3     1516           1530
 2  2013     1     2      909            900         9     1525           1530
 3  2013     1     3      914            900        14     1504           1530
 4  2013     1     4      900            900         0     1516           1530
 5  2013     1     5      858            900        -2     1519           1530
 6  2013     1     6     1019            900        79     1558           1530
 7  2013     1     7     1042            900       102     1620           1530
 8  2013     1     8      901            900         1     1504           1530
 9  2013     1     9      641            900      1301     1242           1530
10  2013     1    10      859            900        -1     1449           1530
# … with 336,766 more rows, and 11 more variables: arr_delay <dbl>,
#   carrier <chr>, flight <int>, tailnum <chr>, origin <chr>, dest <chr>,
#   air_time <dbl>, distance <dbl>, hour <dbl>, minute <dbl>, time_hour <dttm>

The longest flight is HA 51, JFK to HNL, which is 4,983 miles.

To find the shortest flight, sort the flights by the distance in ascending order, which is the default sort order.

arrange(flights, distance)

# A tibble: 336,776 × 19
    year month   day dep_time sched_dep_time dep_delay arr_time sched_arr_time
   <int> <int> <int>    <int>          <int>     <dbl>    <int>          <int>
 1  2013     7    27       NA            106        NA       NA            245
 2  2013     1     3     2127           2129        -2     2222           2224
 3  2013     1     4     1240           1200        40     1333           1306
 4  2013     1     4     1829           1615       134     1937           1721
 5  2013     1     4     2128           2129        -1     2218           2224
 6  2013     1     5     1155           1200        -5     1241           1306
 7  2013     1     6     2125           2129        -4     2224           2224
 8  2013     1     7     2124           2129        -5     2212           2224
 9  2013     1     8     2127           2130        -3     2304           2225
10  2013     1     9     2126           2129        -3     2217           2224
# … with 336,766 more rows, and 11 more variables: arr_delay <dbl>,
#   carrier <chr>, flight <int>, tailnum <chr>, origin <chr>, dest <chr>,
#   air_time <dbl>, distance <dbl>, hour <dbl>, minute <dbl>, time_hour <dttm>

The shortest flight is US 1632, EWR to LGA. Also, this flight is missing a departure time, therefore it either did not actually fly or there is a problem with the data.

The terms “longest” and “shortest” can also refer to the time of the flight instead of the distance. Then, the longest and shortest flights can be found by the air_time column. The longest flights by air_time are the following.

arrange(flights, desc(air_time))

# A tibble: 336,776 × 19
    year month   day dep_time sched_dep_time dep_delay arr_time sched_arr_time
   <int> <int> <int>    <int>          <int>     <dbl>    <int>          <int>
 1  2013     3    17     1337           1335         2     1937           1836
 2  2013     2     6      853            900        -7     1542           1540
 3  2013     3    15     1001           1000         1     1551           1530
 4  2013     3    17     1006           1000         6     1607           1530
 5  2013     3    16     1001           1000         1     1544           1530
 6  2013     2     5      900            900         0     1555           1540
 7  2013    11    12      936            930         6     1630           1530
 8  2013     3    14      958           1000        -2     1542           1530
 9  2013    11    20     1006           1000         6     1639           1555
10  2013     3    15     1342           1335         7     1924           1836
# … with 336,766 more rows, and 11 more variables: arr_delay <dbl>,
#   carrier <chr>, flight <int>, tailnum <chr>, origin <chr>, dest <chr>,
#   air_time <dbl>, distance <dbl>, hour <dbl>, minute <dbl>, time_hour <dttm>

The shortest flights by airtime are the following.

arrange(flights, air_time)

# A tibble: 336,776 × 19
    year month   day dep_time sched_dep_time dep_delay arr_time sched_arr_time
   <int> <int> <int>    <int>          <int>     <dbl>    <int>          <int>
 1  2013     1    16     1355           1315        40     1442           1411
 2  2013     4    13      537            527        10      622            628
 3  2013    12     6      922            851        31     1021            954
 4  2013     2     3     2153           2129        24     2247           2224
 5  2013     2     5     1303           1315       -12     1342           1411
 6  2013     2    12     2123           2130        -7     2211           2225
 7  2013     3     2     1450           1500       -10     1547           1608
 8  2013     3     8     2026           1935        51     2131           2056
 9  2013     3    18     1456           1329        87     1533           1426
10  2013     3    19     2226           2145        41     2305           2246
# … with 336,766 more rows, and 11 more variables: arr_delay <dbl>,
#   carrier <chr>, flight <int>, tailnum <chr>, origin <chr>, dest <chr>,
#   air_time <dbl>, distance <dbl>, hour <dbl>, minute <dbl>, time_hour <dttm>
…
proportion of flights not delayed or cancelled, and

mean arrival delay.

The first metric is the proportion of not-cancelled and on-time flights. I consider the presence of an arrival time that a flight was not cancelled. Nonetheless, there are many planes that have never flown an on-time flight. Also, many of the planes that have the lowest proportion of on-time flights have just flown a small number of flights.

flights %>%
  filter(!is.na(tailnum)) %>%
  mutate(on_time = !is.na(arr_time) & (arr_delay <= 0)) %>%
  group_by(tailnum) %>%
  summarise(on_time = mean(on_time), n = n()) %>%
  filter(min_rank(on_time) == 1)

# A tibble: 110 × 3
   tailnum on_time     n
   <chr>     <dbl> <int>
 1 N121DE        0     2
 2 N136DL        0     1
 3 N143DA        0     1
 4 N17627        0     2
 5 N240AT        0     5
 6 N26906        0     1
 7 N295AT        0     4
 8 N302AS        0     1
 9 N303AS        0     1
10 N32626        0     1
# … with 100 more rows
…
